%YAML 1.1
%TAG !u! tag:unity3d.com,2011:
--- !u!114 &11400000
MonoBehaviour:
  m_ObjectHideFlags: 0
  m_CorrespondingSourceObject: {fileID: 0}
  m_PrefabInstance: {fileID: 0}
  m_PrefabAsset: {fileID: 0}
  m_GameObject: {fileID: 0}
  m_Enabled: 1
  m_EditorHideFlags: 0
  m_Script: {fileID: 11500000, guid: 5760785f8c0064b44b588ae7fd6fd268, type: 3}
  m_Name: MicroSplatConfig
  m_EditorClassIdentifier: 
  antiTileArray: 0
  emisMetalArray: 0
  textureMode: 1
  clusterMode: 0
  packingMode: 0
  hash: -1873352704
  diffuseArray: {fileID: 18700000, guid: 6966c6a2271704eeaa4697428c97b571, type: 2}
  normalSAOArray: {fileID: 18700000, guid: ca49526f427194c41b515c21c5dbe465, type: 2}
  smoothAOArray: {fileID: 0}
  diffuseArray2: {fileID: 0}
  normalSAOArray2: {fileID: 0}
  smoothAOArray2: {fileID: 0}
  diffuseArray3: {fileID: 0}
  normalSAOArray3: {fileID: 0}
  smoothAOArray3: {fileID: 0}
  emisArray: {fileID: 0}
  emisArray2: {fileID: 0}
  emisArray3: {fileID: 0}
  defaultTextureSettings:
    diffuseSettings:
      textureSize: 1024
      compression: 0
      filterMode: 1
      Aniso: 1
    normalSettings:
      textureSize: 1024
      compression: 0
      filterMode: 1
      Aniso: 1
    smoothSettings:
      textureSize: 1024
      compression: 0
      filterMode: 1
      Aniso: 1
    antiTileSettings:
      textureSize: 1024
      compression: 0
      filterMode: 1
      Aniso: 1
    emissiveSettings:
      textureSize: 1024
      compression: 0
      filterMode: 1
      Aniso: 1
  platformOverrides: []
  sourceTextureSize: 0
  allTextureChannelHeight: 1
  allTextureChannelSmoothness: 1
  allTextureChannelAO: 1
  allTextureChannelAlpha: 3
  sourceTextures:
  - diffuse: {fileID: 2800000, guid: 1d6b5702e2d7947a6aca898081729d0f, type: 3}
    height: {fileID: 2800000, guid: a4803915ed20f45f5a61eac0bbe3e477, type: 3}
    heightChannel: 1
    normal: {fileID: 2800000, guid: 294f7637e9ef54b21a1b1ea883dfea32, type: 3}
    smoothness: {fileID: 2800000, guid: 4a3982fcc24514da1b539cfb39014206, type: 3}
    smoothnessChannel: 1
    isRoughness: 0
    ao: {fileID: 2800000, guid: f32b234bd5bb84e928d73cbcc11df72b, type: 3}
    aoChannel: 1
    alpha: {fileID: 0}
    alphaChannel: 1
    normalizeAlpha: 0
    emis: {fileID: 0}
    metal: {fileID: 0}
    metalChannel: 1
    noiseNormal: {fileID: 0}
    detailNoise: {fileID: 0}
    detailChannel: 1
    distanceNoise: {fileID: 0}
    distanceChannel: 1
  - diffuse: {fileID: 2800000, guid: 66fb879d08c8d4a8d9217a396637cd02, type: 3}
    height: {fileID: 2800000, guid: 789a0a85e9c004607b33057be6bc8414, type: 3}
    heightChannel: 1
    normal: {fileID: 2800000, guid: 440362e15edd043ebad4321a5118e235, type: 3}
    smoothness: {fileID: 2800000, guid: 5b0e4204820504dc0a10a227b8b6c18b, type: 3}
    smoothnessChannel: 1
    isRoughness: 0
    ao: {fileID: 2800000, guid: d85f6f03bea454b92b46e99f7bec74b2, type: 3}
    aoChannel: 1
    alpha: {fileID: 0}
    alphaChannel: 1
    normalizeAlpha: 0
    emis: {fileID: 0}
    metal: {fileID: 0}
    metalChannel: 1
    noiseNormal: {fileID: 0}
    detailNoise: {fileID: 0}
    detailChannel: 1
    distanceNoise: {fileID: 0}
    distanceChannel: 1
  - diffuse: {fileID: 2800000, guid: a4a9376fca9114840bb973b6693e7ff5, type: 3}
    height: {fileID: 2800000, guid: 1a8d14e5cac49403e9e88b64d384e29a, type: 3}
    heightChannel: 1
    normal: {fileID: 2800000, guid: 0d626c878590d42eca75516512f93565, type: 3}
    smoothness: {fileID: 2800000, guid: ccdddcfa22e924bb5bde6a40b8ef78df, type: 3}
    smoothnessChannel: 1
    isRoughness: 0
    ao: {fileID: 2800000, guid: d171d477d7bec40a68abb6b20cde67ec, type: 3}
    aoChannel: 1
    alpha: {fileID: 0}
    alphaChannel: 1
    normalizeAlpha: 0
    emis: {fileID: 0}
    metal: {fileID: 0}
    metalChannel: 1
    noiseNormal: {fileID: 0}
    detailNoise: {fileID: 0}
    detailChannel: 1
    distanceNoise: {fileID: 0}
    distanceChannel: 1
  - diffuse: {fileID: 2800000, guid: b2e5c511fff7f41559554175e2005252, type: 3}
    height: {fileID: 2800000, guid: 369894f65d5984c138a718772bb1c747, type: 3}
    heightChannel: 1
    normal: {fileID: 2800000, guid: 0d8f0ee1a15194978ab3e6702762460f, type: 3}
    smoothness: {fileID: 2800000, guid: 6e74c61dcec3a4dd5ba7d5e40b4ae422, type: 3}
    smoothnessChannel: 1
    isRoughness: 0
    ao: {fileID: 2800000, guid: f331a9e993c1b48ad9e9f64f4f9013ba, type: 3}
    aoChannel: 1
    alpha: {fileID: 0}
    alphaChannel: 1
    normalizeAlpha: 0
    emis: {fileID: 0}
    metal: {fileID: 0}
    metalChannel: 1
    noiseNormal: {fileID: 0}
    detailNoise: {fileID: 0}
    detailChannel: 1
    distanceNoise: {fileID: 0}
    distanceChannel: 1
  sourceTextures2:
  - diffuse: {fileID: 0}
    height: {fileID: 0}
    heightChannel: 1
    normal: {fileID: 0}
    smoothness: {fileID: 0}
    smoothnessChannel: 1
    isRoughness: 0
    ao: {fileID: 0}
    aoChannel: 1
    alpha: {fileID: 0}
    alphaChannel: 1
    normalizeAlpha: 0
    emis: {fileID: 0}
    metal: {fileID: 0}
    metalChannel: 1
    noiseNormal: {fileID: 0}
    detailNoise: {fileID: 0}
    detailChannel: 1
    distanceNoise: {fileID: 0}
    distanceChannel: 1
  - diffuse: {fileID: 0}
    height: {fileID: 0}
    heightChannel: 1
    normal: {fileID: 0}
    smoothness: {fileID: 0}
    smoothnessChannel: 1
    isRoughness: 0
    ao: {fileID: 0}
    aoChannel: 1
    alpha: {fileID: 0}
    alphaChannel: 1
    normalizeAlpha: 0
    emis: {fileID: 0}
    metal: {fileID: 0}
    metalChannel: 1
    noiseNormal: {fileID: 0}
    detailNoise: {fileID: 0}
    detailChannel: 1
    distanceNoise: {fileID: 0}
    distanceChannel: 1
  - diffuse: {fileID: 0}
    height: {fileID: 0}
    heightChannel: 1
    normal: {fileID: 0}
    smoothness: {fileID: 0}
    smoothnessChannel: 1
    isRoughness: 0
    ao: {fileID: 0}
    aoChannel: 1
    alpha: {fileID: 0}
    alphaChannel: 1
    normalizeAlpha: 0
    emis: {fileID: 0}
    metal: {fileID: 0}
    metalChannel: 1
    noiseNormal: {fileID: 0}
    detailNoise: {fileID: 0}
    detailChannel: 1
    distanceNoise: {fileID: 0}
    distanceChannel: 1
  - diffuse: {fileID: 0}
    height: {fileID: 0}
    heightChannel: 1
    normal: {fileID: 0}
    smoothness: {fileID: 0}
    smoothnessChannel: 1
    isRoughness: 0
    ao: {fileID: 0}
    aoChannel: 1
    alpha: {fileID: 0}
    alphaChannel: 1
    normalizeAlpha: 0
    emis: {fileID: 0}
    metal: {fileID: 0}
    metalChannel: 1
    noiseNormal: {fileID: 0}
    detailNoise: {fileID: 0}
    detailChannel: 1
    distanceNoise: {fileID: 0}
    distanceChannel: 1
  sourceTextures3:
  - diffuse: {fileID: 0}
    height: {fileID: 0}
    heightChannel: 1
    normal: {fileID: 0}
    smoothness: {fileID: 0}
    smoothnessChannel: 1
    isRoughness: 0
    ao: {fileID: 0}
    aoChannel: 1
    alpha: {fileID: 0}
    alphaChannel: 1
    normalizeAlpha: 0
    emis: {fileID: 0}
    metal: {fileID: 0}
    metalChannel: 1
    noiseNormal: {fileID: 0}
    detailNoise: {fileID: 0}
    detailChannel: 1
    distanceNoise: {fileID: 0}
    distanceChannel: 1
  - diffuse: {fileID: 0}
    height: {fileID: 0}
    heightChannel: 1
    normal: {fileID: 0}
    smoothness: {fileID: 0}
    smoothnessChannel: 1
    isRoughness: 0
    ao: {fileID: 0}
    aoChannel: 1
    alpha: {fileID: 0}
    alphaChannel: 1
    normalizeAlpha: 0
    emis: {fileID: 0}
    metal: {fileID: 0}
    metalChannel: 1
    noiseNormal: {fileID: 0}
    detailNoise: {fileID: 0}
    detailChannel: 1
    distanceNoise: {fileID: 0}
    distanceChannel: 1
  - diffuse: {fileID: 0}
    height: {fileID: 0}
    heightChannel: 1
    normal: {fileID: 0}
    smoothness: {fileID: 0}
    smoothnessChannel: 1
    isRoughness: 0
    ao: {fileID: 0}
    aoChannel: 1
    alpha: {fileID: 0}
    alphaChannel: 1
    normalizeAlpha: 0
    emis: {fileID: 0}
    metal: {fileID: 0}
    metalChannel: 1
    noiseNormal: {fileID: 0}
    detailNoise: {fileID: 0}
    detailChannel: 1
    distanceNoise: {fileID: 0}
    distanceChannel: 1
  - diffuse: {fileID: 0}
    height: {fileID: 0}
    heightChannel: 1
    normal: {fileID: 0}
    smoothness: {fileID: 0}
    smoothnessChannel: 1
    isRoughness: 0
    ao: {fileID: 0}
    aoChannel: 1
    alpha: {fileID: 0}
    alphaChannel: 1
    normalizeAlpha: 0
    emis: {fileID: 0}
    metal: {fileID: 0}
    metalChannel: 1
    noiseNormal: {fileID: 0}
    detailNoise: {fileID: 0}
    detailChannel: 1
    distanceNoise: {fileID: 0}
    distanceChannel: 1
